QUADRAT NUMBER,BLOCK,TREATMENT,YEAR,PERCENT COVER
1,1,C,2004,0.791666667
1,1,C,2005,0.111111111
1,1,C,2006,0.09722222
1,1,C,2007,0.27777778
1,1,C,2008,0.27777778
1,1,C,2009,0.28571429
1,1,C,2010,0.89473684
1,1,C,2011,1
1,1,C,2013,1.44444444
1,1,C,2015,0.88888889
1,1,C,2016,0.72222222
1,1,C,2017,0.72222222
1,1,C,2018,1.11111111
2,1,C,2004,0.069444444
2,1,C,2005,0.055555556
2,1,C,2006,0.06944444
2,1,C,2007,0.22222222
2,1,C,2008,0.33333333
2,1,C,2009,0.21428571
2,1,C,2010,1.15789474
2,1,C,2011,0.52631579
2,1,C,2013,0.22222222
2,1,C,2015,0.27777778
2,1,C,2016,0.38888889
2,1,C,2017,0.11111111
2,1,C,2018,1.5
3,1,C,2004,2.152777778
3,1,C,2005,0.111111111
3,1,C,2006,0.15277778
3,1,C,2007,0.44444444
3,1,C,2008,0.88888889
3,1,C,2009,0.64285714
3,1,C,2010,1.73684211
3,1,C,2011,1.84210526
3,1,C,2013,0.66666667
3,1,C,2015,0.61111111
3,1,C,2016,0.16666667
3,1,C,2017,0.5
3,1,C,2018,0.33333333
4,1,F,2004,4.013888889
4,1,F,2005,1.958333333
4,1,F,2006,5.61111111
4,1,F,2007,0.38888889
4,1,F,2008,0.27777778
4,1,F,2009,0.14285714
4,1,F,2010,0.10526316
4,1,F,2011,0.36842105
4,1,F,2013,0.5
4,1,F,2015,0.16666667
4,1,F,2016,0.16666667
4,1,F,2017,0.27777778
4,1,F,2018,0.27777778
5,1,F,2004,0.513888889
5,1,F,2005,0.763888889
5,1,F,2006,1.73611111
5,1,F,2007,0.22222222
5,1,F,2008,1.22222222
5,1,F,2009,1.35714286
5,1,F,2010,1.05263158
5,1,F,2011,0.10526316
5,1,F,2013,1.38888889
5,1,F,2015,0.82352941
5,1,F,2016,0.88888889
5,1,F,2017,1.05555556
5,1,F,2018,0.88888889
6,1,F,2004,0.152777778
6,1,F,2005,0.055555556
6,1,F,2006,0.08333333
6,1,F,2007,0.11111111
6,1,F,2008,0.16666667
6,1,F,2009,0.28571429
6,1,F,2010,0.36842105
6,1,F,2011,0.15789474
6,1,F,2013,0
6,1,F,2015,0.05555556
6,1,F,2016,0.05555556
6,1,F,2017,0
6,1,F,2018,0
7,2,C,2004,0.333333333
7,2,C,2005,0.555555556
7,2,C,2006,0.41666667
7,2,C,2007,1.16666667
7,2,C,2008,0.77777778
7,2,C,2009,0.5
7,2,C,2010,2.63157895
7,2,C,2011,2.63157895
7,2,C,2013,0.5
7,2,C,2015,0.66666667
7,2,C,2016,0.38888889
7,2,C,2017,0.44444444
7,2,C,2018,0.33333333
8,2,C,2004,2.180555556
8,2,C,2005,0.222222222
8,2,C,2006,0.375
8,2,C,2007,1.11111111
8,2,C,2008,0.94444444
8,2,C,2009,1.6
8,2,C,2010,1.63157895
8,2,C,2011,1.36842105
8,2,C,2013,0.94444444
8,2,C,2015,0.72222222
8,2,C,2016,0.88888889
8,2,C,2017,0.55555556
8,2,C,2018,0.88888889
9,2,C,2004,1.902777778
9,2,C,2005,1.194444444
9,2,C,2006,1.26388889
9,2,C,2007,2.05555556
9,2,C,2008,1.5
9,2,C,2009,2.13333333
9,2,C,2010,3.2631579
9,2,C,2011,1.47368421
9,2,C,2013,1.05555556
9,2,C,2015,0.88888889
9,2,C,2016,0.66666667
9,2,C,2017,0.38888889
9,2,C,2018,0.33333333
10,2,F,2004,0.569444444
10,2,F,2005,0.541666667
10,2,F,2006,2.375
10,2,F,2007,0.33333333
10,2,F,2008,0.33333333
10,2,F,2009,1.5
10,2,F,2010,0.78947368
10,2,F,2011,2
10,2,F,2013,1.05555556
10,2,F,2015,1.22222222
10,2,F,2016,0.88888889
10,2,F,2017,1.44444444
10,2,F,2018,0.88888889
11,2,F,2004,1.944444444
11,2,F,2005,1.583333333
11,2,F,2006,0.47222222
11,2,F,2007,1.11111111
11,2,F,2008,0.66666667
11,2,F,2009,1.35714286
11,2,F,2010,0.2631579
11,2,F,2011,3.68421053
11,2,F,2013,0.83333333
11,2,F,2015,0.27777778
11,2,F,2016,0.83333333
11,2,F,2017,0.5
11,2,F,2018,0.05555556
12,2,F,2004,0.666666667
12,2,F,2005,0.25
12,2,F,2006,1.06944444
12,2,F,2007,0.72222222
12,2,F,2008,0.5
12,2,F,2009,0.73333333
12,2,F,2010,0.21052632
12,2,F,2011,4.42105263
12,2,F,2013,0.61111111
12,2,F,2015,0.33333333
12,2,F,2016,0.94444444
12,2,F,2017,0.27777778
12,2,F,2018,0.61111111
13,3,C,2004,1.041666667
13,3,C,2005,0.694444444
13,3,C,2006,1.08333333
13,3,C,2007,0.55555556
13,3,C,2008,0.83333333
13,3,C,2009,0.78571429
13,3,C,2010,0.89473684
13,3,C,2011,0.47368421
13,3,C,2013,0.77777778
13,3,C,2015,0.88888889
13,3,C,2016,0.5
13,3,C,2017,1.27777778
13,3,C,2018,0.94444444
14,3,C,2004,1.111111111
14,3,C,2005,3.444444444
14,3,C,2006,1.58333333
14,3,C,2007,0.83333333
14,3,C,2008,1.16666667
14,3,C,2009,0.85714286
14,3,C,2010,1.05263158
14,3,C,2011,0.84210526
14,3,C,2013,0.83333333
14,3,C,2015,1.11111111
14,3,C,2016,1.16666667
14,3,C,2017,0.88888889
14,3,C,2018,0.77777778
15,3,C,2004,0.166666667
15,3,C,2005,0.555555556
15,3,C,2006,0.43055556
15,3,C,2007,0.33333333
15,3,C,2008,1
15,3,C,2009,0.85714286
15,3,C,2010,0.42105263
15,3,C,2011,0.15789474
15,3,C,2013,1.61111111
15,3,C,2015,2.27777778
15,3,C,2016,0.94444444
15,3,C,2017,1.44444444
15,3,C,2018,1.16666667
16,3,F,2004,0.402777778
16,3,F,2005,3.708333333
16,3,F,2006,1.86111111
16,3,F,2007,0.5
16,3,F,2008,0.55555556
16,3,F,2009,0.35714286
16,3,F,2010,0.63157895
16,3,F,2011,1.42105263
16,3,F,2013,0.55555556
16,3,F,2015,0.55555556
16,3,F,2016,0.55555556
16,3,F,2017,0.5
16,3,F,2018,0.33333333
17,3,F,2004,0.055555556
17,3,F,2005,0.208333333
17,3,F,2006,0.36111111
17,3,F,2007,0.61111111
17,3,F,2008,0.5
17,3,F,2009,0.92857143
17,3,F,2010,0.15789474
17,3,F,2011,1.84210526
17,3,F,2013,0.88888889
17,3,F,2015,0.27777778
17,3,F,2016,0.44444444
17,3,F,2017,0.22222222
17,3,F,2018,0.11111111
18,3,F,2004,1
18,3,F,2005,2.083333333
18,3,F,2006,2.15277778
18,3,F,2007,0.44444444
18,3,F,2008,0.61111111
18,3,F,2009,0.64285714
18,3,F,2010,0.10526316
18,3,F,2011,1.36842105
18,3,F,2013,1.05555556
18,3,F,2015,0.61111111
18,3,F,2016,0.11111111
18,3,F,2017,0.22222222
18,3,F,2018,0
19,4,C,2004,4.833333333
19,4,C,2005,4.819444444
19,4,C,2006,3.20833333
19,4,C,2007,0.61111111
19,4,C,2008,0.72222222
19,4,C,2009,2
19,4,C,2010,1.15789474
19,4,C,2011,1.15789474
19,4,C,2013,0.55555556
19,4,C,2015,0.66666667
19,4,C,2016,1.11111111
19,4,C,2017,1.72222222
19,4,C,2018,1.5
20,4,C,2004,1.75
20,4,C,2005,2.458333333
20,4,C,2006,0.13888889
20,4,C,2007,0.33333333
20,4,C,2008,0.61111111
20,4,C,2009,0.64285714
20,4,C,2010,0.84210526
20,4,C,2011,4.31578947
20,4,C,2013,1.11111111
20,4,C,2015,0.55555556
20,4,C,2016,0.66666667
20,4,C,2017,0.83333333
20,4,C,2018,0.22222222
21,4,C,2004,2.277777778
21,4,C,2005,2.222222222
21,4,C,2006,2.08333333
21,4,C,2007,0.27777778
21,4,C,2008,1
21,4,C,2009,0.57142857
21,4,C,2010,1.05263158
21,4,C,2011,2.52631579
21,4,C,2013,0.66666667
21,4,C,2015,0.77777778
21,4,C,2016,1.11111111
21,4,C,2017,1.22222222
21,4,C,2018,1.22222222
22,4,F,2004,5.277777778
22,4,F,2005,2.972222222
22,4,F,2006,1.31944444
22,4,F,2007,0.22222222
22,4,F,2008,0.27777778
22,4,F,2009,0.42857143
22,4,F,2010,0.15789474
22,4,F,2011,0
22,4,F,2013,0.27777778
22,4,F,2015,0.44444444
22,4,F,2016,0.72222222
22,4,F,2017,0.44444444
22,4,F,2018,0.66666667
23,4,F,2004,3.833333333
23,4,F,2005,0.305555556
23,4,F,2006,1.31944444
23,4,F,2007,0.38888889
23,4,F,2008,0.11111111
23,4,F,2009,0.07142857
23,4,F,2010,0.31578947
23,4,F,2011,1.15789474
23,4,F,2013,0.5
23,4,F,2015,0.27777778
23,4,F,2016,0.55555556
23,4,F,2017,0.22222222
23,4,F,2018,0.05555556
24,4,F,2004,0.111111111
24,4,F,2005,0.111111111
24,4,F,2006,0.23611111
24,4,F,2007,0.55555556
24,4,F,2008,0.66666667
24,4,F,2009,0.78571429
24,4,F,2010,0.73684211
24,4,F,2011,0.52631579
24,4,F,2013,0.77777778
24,4,F,2015,0.11111111
24,4,F,2016,0.55555556
24,4,F,2017,0.16666667
24,4,F,2018,0.22222222
25,5,C,2004,0.819444444
25,5,C,2005,1.194444444
25,5,C,2006,0.11111111
25,5,C,2007,1
25,5,C,2008,1.16666667
25,5,C,2009,1.42857143
25,5,C,2010,1.94736842
25,5,C,2011,2
25,5,C,2013,0.52631579
25,5,C,2015,1.15789474
25,5,C,2016,1
25,5,C,2017,0.94444444
25,5,C,2018,0.44444444
26,5,C,2004,2.5
26,5,C,2005,1.236111111
26,5,C,2006,2.43055556
26,5,C,2007,1.22222222
26,5,C,2008,0.72222222
26,5,C,2009,0.92857143
26,5,C,2010,1.63157895
26,5,C,2011,3.31578947
26,5,C,2013,1.05555556
26,5,C,2015,1.61111111
26,5,C,2016,1.22222222
26,5,C,2017,1.61111111
26,5,C,2018,0.88888889
27,5,C,2004,0.902777778
27,5,C,2005,0.708333333
27,5,C,2006,2.22222222
27,5,C,2007,0.94444444
27,5,C,2008,1.22222222
27,5,C,2009,1.5
27,5,C,2010,0.2631579
27,5,C,2011,1.89473684
27,5,C,2013,0.66666667
27,5,C,2015,0.27777778
27,5,C,2016,0.72222222
27,5,C,2017,0.66666667
27,5,C,2018,0.66666667
28,5,F,2004,1.597222222
28,5,F,2005,0.25
28,5,F,2006,1.44444444
28,5,F,2007,0.38888889
28,5,F,2008,0.61111111
28,5,F,2009,0.42857143
28,5,F,2010,0
28,5,F,2011,1.78947368
28,5,F,2013,0.66666667
28,5,F,2015,0.33333333
28,5,F,2016,0.61111111
28,5,F,2017,0.5
28,5,F,2018,0.38888889
29,5,F,2004,3.152777778
29,5,F,2005,2.819444444
29,5,F,2006,1.11111111
29,5,F,2007,0.38888889
29,5,F,2008,0.72222222
29,5,F,2009,1.46666667
29,5,F,2010,0.05263158
29,5,F,2011,0.57894737
29,5,F,2013,0.83333333
29,5,F,2015,0.22222222
29,5,F,2016,0.05555556
29,5,F,2017,0.5
29,5,F,2018,0.11111111
30,5,F,2004,1.5
30,5,F,2005,2.333333333
30,5,F,2006,2.08333333
30,5,F,2007,0.72222222
30,5,F,2008,1.27777778
30,5,F,2009,1.35714286
30,5,F,2010,0.89473684
30,5,F,2011,1.10526316
30,5,F,2013,1.38888889
30,5,F,2015,0.83333333
30,5,F,2016,1.05555556
30,5,F,2017,0.88888889
30,5,F,2018,0.72222222
31,6,C,2004,0.694444444
31,6,C,2005,1.611111111
31,6,C,2006,1.52777778
31,6,C,2007,1.33333333
31,6,C,2008,1.05555556
31,6,C,2009,2.92857143
31,6,C,2010,1.2631579
31,6,C,2011,1.2631579
31,6,C,2013,0.88888889
31,6,C,2015,1.16666667
31,6,C,2016,1.16666667
31,6,C,2017,1
31,6,C,2018,1.61111111
32,6,C,2004,0.888888889
32,6,C,2005,1.888888889
32,6,C,2006,2.51388889
32,6,C,2007,0.33333333
32,6,C,2008,0.44444444
32,6,C,2009,1.21428571
32,6,C,2010,0.73684211
32,6,C,2011,1.84210526
32,6,C,2013,1.33333333
32,6,C,2015,2
32,6,C,2016,1.83333333
32,6,C,2017,0.72222222
32,6,C,2018,0.66666667
33,6,C,2004,1.25
33,6,C,2005,3.097222222
33,6,C,2006,1.98611111
33,6,C,2007,1.83333333
33,6,C,2008,2.88888889
33,6,C,2009,3.71428571
33,6,C,2010,0.63157895
33,6,C,2011,1.15789474
33,6,C,2013,1
33,6,C,2015,1.27777778
33,6,C,2016,1.05555556
33,6,C,2017,1.33333333
33,6,C,2018,0.94444444
34,6,F,2004,0.152777778
34,6,F,2005,0.694444444
34,6,F,2006,0.65277778
34,6,F,2007,1.05555556
34,6,F,2008,0.55555556
34,6,F,2009,0.85714286
34,6,F,2010,1.05263158
34,6,F,2011,1.36842105
34,6,F,2013,0.44444444
34,6,F,2015,0.55555556
34,6,F,2016,1.61111111
34,6,F,2017,0.61111111
34,6,F,2018,0.66666667
35,6,F,2004,0.638888889
35,6,F,2005,1.319444444
35,6,F,2006,0.75
35,6,F,2007,0.5
35,6,F,2008,0.66666667
35,6,F,2009,1.42857143
35,6,F,2010,3.21052632
35,6,F,2011,2.15789474
35,6,F,2013,1.33333333
35,6,F,2015,0.88888889
35,6,F,2016,0.72222222
35,6,F,2017,1.44444444
35,6,F,2018,1.16666667
36,6,F,2004,0.263888889
36,6,F,2005,0.958333333
36,6,F,2006,4.72222222
36,6,F,2007,0.27777778
36,6,F,2008,0.77777778
36,6,F,2009,0.64285714
36,6,F,2010,0.57894737
36,6,F,2011,3.2631579
36,6,F,2013,0.55555556
36,6,F,2015,0.66666667
36,6,F,2016,0.5
36,6,F,2017,0.66666667
36,6,F,2018,0.72222222
37,7,C,2004,3.736111111
37,7,C,2005,2.083333333
37,7,C,2006,2.48611111
37,7,C,2007,1.22222222
37,7,C,2008,0.5
37,7,C,2009,1.64285714
37,7,C,2010,0.57894737
37,7,C,2011,1.78947368
37,7,C,2013,0.66666667
37,7,C,2015,1.44444444
37,7,C,2016,0.44444444
37,7,C,2017,0.94444444
37,7,C,2018,1.11111111
38,7,C,2004,1.805555556
38,7,C,2005,1.180555556
38,7,C,2006,1.77777778
38,7,C,2007,0
38,7,C,2008,0.11111111
38,7,C,2009,0.28571429
38,7,C,2010,1.2631579
38,7,C,2011,1
38,7,C,2013,0.66666667
38,7,C,2015,0.61111111
38,7,C,2016,0.77777778
38,7,C,2017,0.66666667
38,7,C,2018,0.5
39,7,C,2004,1.569444444
39,7,C,2005,1.791666667
39,7,C,2006,1.65277778
39,7,C,2007,0.11111111
39,7,C,2008,0.11111111
39,7,C,2009,0.2
39,7,C,2010,0.15789474
39,7,C,2011,0.31578947
39,7,C,2013,0
39,7,C,2015,0.44444444
39,7,C,2016,0.05555556
39,7,C,2017,0.16666667
39,7,C,2018,0.27777778
40,7,F,2004,1.388888889
40,7,F,2005,2.638888889
40,7,F,2006,1.52777778
40,7,F,2007,0.44444444
40,7,F,2008,0.22222222
40,7,F,2009,0.5
40,7,F,2010,0.36842105
40,7,F,2011,1.15789474
40,7,F,2013,0.22222222
40,7,F,2015,0.27777778
40,7,F,2016,0.22222222
40,7,F,2017,0.05555556
40,7,F,2018,0.16666667
41,7,F,2004,0.194444444
41,7,F,2005,0.972222222
41,7,F,2006,2.5
41,7,F,2007,0.61111111
41,7,F,2008,0.22222222
41,7,F,2009,1.5
41,7,F,2010,0.89473684
41,7,F,2011,2.57894737
41,7,F,2013,0.27777778
41,7,F,2015,0.33333333
41,7,F,2016,0.33333333
41,7,F,2017,0.33333333
41,7,F,2018,0.27777778
42,7,F,2004,0.791666667
42,7,F,2005,1.944444444
42,7,F,2006,6.94444444
42,7,F,2007,0.55555556
42,7,F,2008,0.27777778
42,7,F,2009,1.28571429
42,7,F,2010,0.52631579
42,7,F,2011,1.31578947
42,7,F,2013,1.05555556
42,7,F,2015,0.66666667
42,7,F,2016,0.22222222
42,7,F,2017,0.27777778
42,7,F,2018,0.44444444
43,8,C,2004,0.722222222
43,8,C,2005,0.902777778
43,8,C,2006,1.40277778
43,8,C,2007,1.16666667
43,8,C,2008,1.05555556
43,8,C,2009,2.71428571
43,8,C,2010,0.78947368
43,8,C,2011,1.31578947
43,8,C,2013,0.66666667
43,8,C,2015,0.38888889
43,8,C,2016,0.72222222
43,8,C,2017,0.61111111
43,8,C,2018,2.77777778
44,8,C,2004,0.388888889
44,8,C,2005,0.416666667
44,8,C,2006,0.18055556
44,8,C,2007,0.16666667
44,8,C,2008,0.22222222
44,8,C,2009,0.5
44,8,C,2010,1.63157895
44,8,C,2011,4.47368421
44,8,C,2013,1
44,8,C,2015,0.5
44,8,C,2016,0.22222222
44,8,C,2017,0.66666667
44,8,C,2018,0.94444444
45,8,C,2004,0.333333333
45,8,C,2005,0.111111111
45,8,C,2006,0.09722222
45,8,C,2007,0.33333333
45,8,C,2008,0.16666667
45,8,C,2009,0.42857143
45,8,C,2010,2.21052632
45,8,C,2011,3.36842105
45,8,C,2013,0.55555556
45,8,C,2015,0.16666667
45,8,C,2016,0.38888889
45,8,C,2017,1.11111111
45,8,C,2018,0.22222222
46,8,F,2004,0.319444444
46,8,F,2005,1.597222222
46,8,F,2006,1.77777778
46,8,F,2007,0.44444444
46,8,F,2008,0.44444444
46,8,F,2009,0.28571429
46,8,F,2010,0.10526316
46,8,F,2011,2.89473684
46,8,F,2013,1.27777778
46,8,F,2015,0.16666667
46,8,F,2016,0.22222222
46,8,F,2017,0.61111111
46,8,F,2018,0.11111111
47,8,F,2004,0.222222222
47,8,F,2005,0
47,8,F,2006,0
47,8,F,2007,0.66666667
47,8,F,2008,0.16666667
47,8,F,2009,0.21428571
47,8,F,2010,0.42105263
47,8,F,2011,1.21052632
47,8,F,2013,0.16666667
47,8,F,2015,0.27777778
47,8,F,2016,0.27777778
47,8,F,2017,0.16666667
47,8,F,2018,0.55555556
48,8,F,2004,0.138888889
48,8,F,2005,0.055555556
48,8,F,2006,0.20833333
48,8,F,2007,1.55555556
48,8,F,2008,0.16666667
48,8,F,2009,1
48,8,F,2010,1.47368421
48,8,F,2011,1.84210526
48,8,F,2013,0.38888889
48,8,F,2015,0.61111111
48,8,F,2016,0.66666667
48,8,F,2017,0.33333333
48,8,F,2018,0.33333333
49,1,M,2004,1.291666667
49,1,M,2005,0.111111111
49,1,M,2006,0.02777778
49,1,M,2007,0.22222222
49,1,M,2008,0.16666667
49,1,M,2009,0.35714286
49,1,M,2010,3.36842105
49,1,M,2011,6.42105263
49,1,M,2013,0.44444444
49,1,M,2015,0.22222222
49,1,M,2016,0.5
49,1,M,2017,0.22222222
49,1,M,2018,0.61111111
50,1,M,2004,0.055555556
50,1,M,2005,0.305555556
50,1,M,2006,0.125
50,1,M,2007,0.44444444
50,1,M,2008,0.33333333
50,1,M,2009,0.71428571
50,1,M,2010,5.73684211
50,1,M,2011,4.57894737
50,1,M,2013,0.61111111
50,1,M,2015,2.05555556
50,1,M,2016,1.38888889
50,1,M,2017,1.27777778
50,1,M,2018,1.94444444
51,1,M,2004,0.111111111
51,1,M,2005,0.111111111
51,1,M,2006,0.06944444
51,1,M,2007,0.61111111
51,1,M,2008,0.44444444
51,1,M,2009,1.57142857
51,1,M,2010,4.21052632
51,1,M,2011,7.15789474
51,1,M,2013,0.66666667
51,1,M,2015,0.44444444
51,1,M,2016,1
51,1,M,2017,0.33333333
51,1,M,2018,0.16666667
52,1,MF,2004,0.166666667
52,1,MF,2005,0.472222222
52,1,MF,2006,0.02777778
52,1,MF,2007,0.16666667
52,1,MF,2008,0.16666667
52,1,MF,2009,0.4
52,1,MF,2010,4.89473684
52,1,MF,2011,6.10526316
52,1,MF,2013,0.66666667
52,1,MF,2015,0.66666667
52,1,MF,2016,1
52,1,MF,2017,0.5
52,1,MF,2018,0.5
53,1,MF,2004,0.25
53,1,MF,2005,1.513888889
53,1,MF,2006,2.34722222
53,1,MF,2007,0.83333333
53,1,MF,2008,1.22222222
53,1,MF,2009,1.35714286
53,1,MF,2010,3.63157895
53,1,MF,2011,11.4736842
53,1,MF,2013,1.66666667
53,1,MF,2015,1.33333333
53,1,MF,2016,0.55555556
53,1,MF,2017,0.5
53,1,MF,2018,0.88888889
54,1,MF,2004,0.361111111
54,1,MF,2005,0.305555556
54,1,MF,2006,0.05555556
54,1,MF,2007,0.44444444
54,1,MF,2008,0.22222222
54,1,MF,2009,1
54,1,MF,2010,2.15789474
54,1,MF,2011,7.68421053
54,1,MF,2013,0.33333333
54,1,MF,2015,0.83333333
54,1,MF,2016,0.33333333
54,1,MF,2017,0.22222222
54,1,MF,2018,0.22222222
55,2,M,2004,2.861111111
55,2,M,2005,0.847222222
55,2,M,2006,0.48611111
55,2,M,2007,1.83333333
55,2,M,2008,2.05555556
55,2,M,2009,2.07142857
55,2,M,2010,7.05263158
55,2,M,2011,9.2631579
55,2,M,2013,1
55,2,M,2015,0.61111111
55,2,M,2016,1.05555556
55,2,M,2017,1.05555556
55,2,M,2018,1
56,2,M,2004,0.444444444
56,2,M,2005,1.138888889
56,2,M,2006,0.65277778
56,2,M,2007,1.27777778
56,2,M,2008,0.33333333
56,2,M,2009,1.28571429
56,2,M,2010,6.63157895
56,2,M,2011,6.10526316
56,2,M,2013,1.38888889
56,2,M,2015,1.11111111
56,2,M,2016,1
56,2,M,2017,0.77777778
56,2,M,2018,1.05555556
57,2,M,2004,0.958333333
57,2,M,2005,0.375
57,2,M,2006,0.11111111
57,2,M,2007,0.77777778
57,2,M,2008,1.05555556
57,2,M,2009,1
57,2,M,2010,7.68421053
57,2,M,2011,7.89473684
57,2,M,2013,1.44444444
57,2,M,2015,0.33333333
57,2,M,2016,1.38888889
57,2,M,2017,0.83333333
57,2,M,2018,0.05555556
58,2,MF,2004,0.555555556
58,2,MF,2005,0.277777778
58,2,MF,2006,0.13888889
58,2,MF,2007,0.16666667
58,2,MF,2008,0.11111111
58,2,MF,2009,0.57142857
58,2,MF,2010,2.63157895
58,2,MF,2011,18
58,2,MF,2013,0.16666667
58,2,MF,2015,0.77777778
58,2,MF,2016,0.55555556
58,2,MF,2017,0.72222222
58,2,MF,2018,0.5
59,2,MF,2004,1.222222222
59,2,MF,2005,0.125
59,2,MF,2006,0.06944444
59,2,MF,2007,0.55555556
59,2,MF,2008,0.55555556
59,2,MF,2009,0.71428571
59,2,MF,2010,1.89473684
59,2,MF,2011,10.5263158
59,2,MF,2013,0.05555556
59,2,MF,2015,0.61111111
59,2,MF,2016,0
59,2,MF,2017,0.38888889
59,2,MF,2018,1.94444444
60,2,MF,2004,0.444444444
60,2,MF,2005,0.527777778
60,2,MF,2006,0.22222222
60,2,MF,2007,1.77777778
60,2,MF,2008,1.44444444
60,2,MF,2009,2.07142857
60,2,MF,2010,3.42105263
60,2,MF,2011,10.8947368
60,2,MF,2013,1.66666667
60,2,MF,2015,1.55555556
60,2,MF,2016,0.77777778
60,2,MF,2017,1.05555556
60,2,MF,2018,0.72222222
61,3,M,2004,1.083333333
61,3,M,2005,0.402777778
61,3,M,2006,0.81944444
61,3,M,2007,1
61,3,M,2008,1.72222222
61,3,M,2009,1.35714286
61,3,M,2010,2.89473684
61,3,M,2011,7.36842105
61,3,M,2013,1.94444444
61,3,M,2015,1.16666667
61,3,M,2016,0.94444444
61,3,M,2017,1.33333333
61,3,M,2018,0.83333333
62,3,M,2004,0.611111111
62,3,M,2005,0.402777778
62,3,M,2006,0.76388889
62,3,M,2007,0.38888889
62,3,M,2008,0.83333333
62,3,M,2009,0.64285714
62,3,M,2010,7.2631579
62,3,M,2011,8.68421053
62,3,M,2013,0.44444444
62,3,M,2015,0.38888889
62,3,M,2016,1.55555556
62,3,M,2017,1.11111111
62,3,M,2018,0.27777778
63,3,M,2004,0.472222222
63,3,M,2005,0.972222222
63,3,M,2006,0.76388889
63,3,M,2007,0.38888889
63,3,M,2008,0.38888889
63,3,M,2009,0.5
63,3,M,2010,3.52631579
63,3,M,2011,7
63,3,M,2013,0.72222222
63,3,M,2015,0.22222222
63,3,M,2016,0.16666667
63,3,M,2017,0.44444444
63,3,M,2018,0.55555556
64,3,MF,2004,0.458333333
64,3,MF,2005,0.208333333
64,3,MF,2006,1.08333333
64,3,MF,2007,0.72222222
64,3,MF,2008,1.33333333
64,3,MF,2009,1.42857143
64,3,MF,2010,1.94736842
64,3,MF,2011,7.73684211
64,3,MF,2013,0.94444444
64,3,MF,2015,0.61111111
64,3,MF,2016,0.72222222
64,3,MF,2017,0.61111111
64,3,MF,2018,0.55555556
65,3,MF,2004,0.638888889
65,3,MF,2005,0.888888889
65,3,MF,2006,0.48611111
65,3,MF,2007,0.5
65,3,MF,2008,0.55555556
65,3,MF,2009,1.28571429
65,3,MF,2010,0.84210526
65,3,MF,2011,8.36842105
65,3,MF,2013,0.5
65,3,MF,2015,0.27777778
65,3,MF,2016,0.27777778
65,3,MF,2017,0.38888889
65,3,MF,2018,0.27777778
66,3,MF,2004,0.347222222
66,3,MF,2005,0.694444444
66,3,MF,2006,0.40277778
66,3,MF,2007,0.5
66,3,MF,2008,0.22222222
66,3,MF,2009,0.85714286
66,3,MF,2010,1.73684211
66,3,MF,2011,5.31578947
66,3,MF,2013,0.5
66,3,MF,2015,1.16666667
66,3,MF,2016,0.27777778
66,3,MF,2017,0.44444444
66,3,MF,2018,1.16666667
67,4,M,2004,0.763888889
67,4,M,2005,1.027777778
67,4,M,2006,0.72222222
67,4,M,2007,2.27777778
67,4,M,2008,3.27777778
67,4,M,2009,3.07142857
67,4,M,2010,5.57894737
67,4,M,2011,8.78947368
67,4,M,2013,1.66666667
67,4,M,2015,2.66666667
67,4,M,2016,2.94444444
67,4,M,2017,1.94444444
67,4,M,2018,3.27777778
68,4,M,2004,1.652777778
68,4,M,2005,0.694444444
68,4,M,2006,2.44444444
68,4,M,2007,3.61111111
68,4,M,2008,3.33333333
68,4,M,2009,4.78571429
68,4,M,2010,6.78947368
68,4,M,2011,5.94736842
68,4,M,2013,1.94444444
68,4,M,2015,1.61111111
68,4,M,2016,1.33333333
68,4,M,2017,2
68,4,M,2018,1.16666667
69,4,M,2004,1.305555556
69,4,M,2005,0.666666667
69,4,M,2006,0.48611111
69,4,M,2007,0.27777778
69,4,M,2008,1.55555556
69,4,M,2009,0.42857143
69,4,M,2010,5.89473684
69,4,M,2011,10.631579
69,4,M,2013,1.11111111
69,4,M,2015,0.83333333
69,4,M,2016,1
69,4,M,2017,1.77777778
69,4,M,2018,2.16666667
70,4,MF,2004,1.152777778
70,4,MF,2005,1.472222222
70,4,MF,2006,0.83333333
70,4,MF,2007,0.55555556
70,4,MF,2008,0.33333333
70,4,MF,2009,0
70,4,MF,2010,1.73684211
70,4,MF,2011,6.94736842
70,4,MF,2013,0.38888889
70,4,MF,2015,0.22222222
70,4,MF,2016,0
70,4,MF,2017,0
70,4,MF,2018,0.61111111
71,4,MF,2004,0.375
71,4,MF,2005,0.236111111
71,4,MF,2006,0.26388889
71,4,MF,2007,1.27777778
71,4,MF,2008,0.83333333
71,4,MF,2009,1.28571429
71,4,MF,2010,2.21052632
71,4,MF,2011,11.4210526
71,4,MF,2013,0.22222222
71,4,MF,2015,0.27777778
71,4,MF,2016,0
71,4,MF,2017,0.38888889
71,4,MF,2018,0.66666667
72,4,MF,2004,3.791666667
72,4,MF,2005,0.125
72,4,MF,2006,0.20833333
72,4,MF,2007,0.22222222
72,4,MF,2008,0.44444444
72,4,MF,2009,1.78571429
72,4,MF,2010,4.21052632
72,4,MF,2011,11.3157895
72,4,MF,2013,0.16666667
72,4,MF,2015,0.33333333
72,4,MF,2016,0.55555556
72,4,MF,2017,0.38888889
72,4,MF,2018,0.44444444
73,5,M,2004,0.763888889
73,5,M,2005,0.611111111
73,5,M,2006,0.125
73,5,M,2007,1.16666667
73,5,M,2008,1.94444444
73,5,M,2009,1.78571429
73,5,M,2010,3.89473684
73,5,M,2011,5.52631579
73,5,M,2013,0.77777778
73,5,M,2015,1.44444444
73,5,M,2016,1.33333333
73,5,M,2017,1.33333333
73,5,M,2018,0.66666667
74,5,M,2004,0.194444444
74,5,M,2005,0.263888889
74,5,M,2006,0.22222222
74,5,M,2007,1.27777778
74,5,M,2008,0.33333333
74,5,M,2009,0.71428571
74,5,M,2010,5.36842105
74,5,M,2011,6.89473684
74,5,M,2013,0.22222222
74,5,M,2015,1.27777778
74,5,M,2016,0.33333333
74,5,M,2017,0.44444444
74,5,M,2018,0.72222222
75,5,M,2004,0.763888889
75,5,M,2005,1.444444444
75,5,M,2006,0.98611111
75,5,M,2007,1.16666667
75,5,M,2008,2.27777778
75,5,M,2009,1.07142857
75,5,M,2010,2.10526316
75,5,M,2011,7
75,5,M,2013,0.61111111
75,5,M,2015,0.88888889
75,5,M,2016,1.11111111
75,5,M,2017,1.38888889
75,5,M,2018,2
76,5,MF,2004,2.833333333
76,5,MF,2005,3.222222222
76,5,MF,2006,2.69444444
76,5,MF,2007,1.55555556
76,5,MF,2008,1.88888889
76,5,MF,2009,1.57142857
76,5,MF,2010,0.52631579
76,5,MF,2011,4.05263158
76,5,MF,2013,2.55555556
76,5,MF,2015,1.05555556
76,5,MF,2016,1.5
76,5,MF,2017,1.44444444
76,5,MF,2018,0.44444444
77,5,MF,2004,0.333333333
77,5,MF,2005,0.513888889
77,5,MF,2006,0.66666667
77,5,MF,2007,0.83333333
77,5,MF,2008,1.77777778
77,5,MF,2009,2.28571429
77,5,MF,2010,2.36842105
77,5,MF,2011,4
77,5,MF,2013,1.27777778
77,5,MF,2015,0.72222222
77,5,MF,2016,0.66666667
77,5,MF,2017,0.5
77,5,MF,2018,0.05555556
78,5,MF,2004,4.236111111
78,5,MF,2005,1.875
78,5,MF,2006,4.16666667
78,5,MF,2007,1.27777778
78,5,MF,2008,1.22222222
78,5,MF,2009,0.78571429
78,5,MF,2010,1.15789474
78,5,MF,2011,5.57894737
78,5,MF,2013,1.11111111
78,5,MF,2015,0.5
78,5,MF,2016,0.61111111
78,5,MF,2017,1.5
78,5,MF,2018,0.88888889
79,6,M,2004,0.527777778
79,6,M,2005,0.180555556
79,6,M,2006,0.30555556
79,6,M,2007,0.77777778
79,6,M,2008,1
79,6,M,2009,0.71428571
79,6,M,2010,4.63157895
79,6,M,2011,6.52631579
79,6,M,2013,0.11111111
79,6,M,2015,1.05555556
79,6,M,2016,0.44444444
79,6,M,2017,0.55555556
79,6,M,2018,1.05555556
80,6,M,2004,1.736111111
80,6,M,2005,2.055555556
80,6,M,2006,0.98611111
80,6,M,2007,2.33333333
80,6,M,2008,2.55555556
80,6,M,2009,3.35714286
80,6,M,2010,4.63157895
80,6,M,2011,5.47368421
80,6,M,2013,4.05555556
80,6,M,2015,2.83333333
80,6,M,2016,2.11111111
80,6,M,2017,4.88888889
80,6,M,2018,4.27777778
81,6,M,2004,1.486111111
81,6,M,2005,1.972222222
81,6,M,2006,2.09722222
81,6,M,2007,2.11111111
81,6,M,2008,3.44444444
81,6,M,2009,2.21428571
81,6,M,2010,4.57894737
81,6,M,2011,7.42105263
81,6,M,2013,3.11111111
81,6,M,2015,3.44444444
81,6,M,2016,0.88888889
81,6,M,2017,3.61111111
81,6,M,2018,0.44444444
82,6,MF,2004,1.152777778
82,6,MF,2005,0.138888889
82,6,MF,2006,0.08333333
82,6,MF,2007,0.27777778
82,6,MF,2008,0.38888889
82,6,MF,2009,1.35714286
82,6,MF,2010,1.47368421
82,6,MF,2011,14.8421053
82,6,MF,2013,2.27777778
82,6,MF,2015,0.83333333
82,6,MF,2016,0.94444444
82,6,MF,2017,0.94444444
82,6,MF,2018,0.88888889
83,6,MF,2004,0.263888889
83,6,MF,2005,0.638888889
83,6,MF,2006,1.01388889
83,6,MF,2007,0.94444444
83,6,MF,2008,1.05555556
83,6,MF,2009,1
83,6,MF,2010,1.31578947
83,6,MF,2011,8.21052632
83,6,MF,2013,0.66666667
83,6,MF,2015,0.88888889
83,6,MF,2016,1
83,6,MF,2017,0.94444444
83,6,MF,2018,0.55555556
84,6,MF,2004,0.5
84,6,MF,2005,0.166666667
84,6,MF,2006,0.15277778
84,6,MF,2007,0.83333333
84,6,MF,2008,0.66666667
84,6,MF,2009,0.21428571
84,6,MF,2010,1.52631579
84,6,MF,2011,7.89473684
84,6,MF,2013,1.33333333
84,6,MF,2015,0.61111111
84,6,MF,2016,0.66666667
84,6,MF,2017,0.33333333
84,6,MF,2018,0.33333333
85,7,M,2004,1.597222222
85,7,M,2005,1.027777778
85,7,M,2006,1.48611111
85,7,M,2007,1.77777778
85,7,M,2008,1.22222222
85,7,M,2009,2.42857143
85,7,M,2010,2.73684211
85,7,M,2011,4.31578947
85,7,M,2013,0.61111111
85,7,M,2015,0.11111111
85,7,M,2016,0.77777778
85,7,M,2017,0.11111111
85,7,M,2018,0.11111111
86,7,M,2004,1.041666667
86,7,M,2005,0.763888889
86,7,M,2006,1.30555556
86,7,M,2007,0.61111111
86,7,M,2008,0.72222222
86,7,M,2009,1.14285714
86,7,M,2010,3.2631579
86,7,M,2011,6.63157895
86,7,M,2013,0.11111111
86,7,M,2015,0.61111111
86,7,M,2016,0.38888889
86,7,M,2017,0.16666667
86,7,M,2018,0.27777778
87,7,M,2004,0.75
87,7,M,2005,0.541666667
87,7,M,2006,0.625
87,7,M,2007,1.11111111
87,7,M,2008,0.33333333
87,7,M,2009,0.14285714
87,7,M,2010,1.94736842
87,7,M,2011,6.68421053
87,7,M,2013,1.61111111
87,7,M,2015,0.44444444
87,7,M,2016,0.55555556
87,7,M,2017,3.5
87,7,M,2018,0.55555556
88,7,MF,2004,0
88,7,MF,2005,0
88,7,MF,2006,0
88,7,MF,2007,0
88,7,MF,2008,0
88,7,MF,2009,0.14285714
88,7,MF,2010,0.52631579
88,7,MF,2011,2.31578947
88,7,MF,2013,1.05555556
88,7,MF,2015,0.05555556
88,7,MF,2016,0.22222222
88,7,MF,2017,0.11111111
88,7,MF,2018,0.77777778
89,7,MF,2004,0.236111111
89,7,MF,2005,0.055555556
89,7,MF,2006,0
89,7,MF,2007,0
89,7,MF,2008,0.33333333
89,7,MF,2009,0.28571429
89,7,MF,2010,1.10526316
89,7,MF,2011,7.2631579
89,7,MF,2013,0.55555556
89,7,MF,2015,0.38888889
89,7,MF,2016,0.5
89,7,MF,2017,0.16666667
89,7,MF,2018,0.22222222
90,7,MF,2004,0.972222222
90,7,MF,2005,0.138888889
90,7,MF,2006,0.02777778
90,7,MF,2007,0
90,7,MF,2008,0
90,7,MF,2009,0
90,7,MF,2010,0.2631579
90,7,MF,2011,7.78947368
90,7,MF,2013,1.44444444
90,7,MF,2015,0.66666667
90,7,MF,2016,0.22222222
90,7,MF,2017,0.66666667
90,7,MF,2018,0.38888889
91,8,M,2004,0.625
91,8,M,2005,0.333333333
91,8,M,2006,0.38888889
91,8,M,2007,0.66666667
91,8,M,2008,0.44444444
91,8,M,2009,1.28571429
91,8,M,2010,4.31578947
91,8,M,2011,3.73684211
91,8,M,2013,0.13333333
91,8,M,2015,0.11111111
91,8,M,2016,0.44444444
91,8,M,2017,0.72222222
91,8,M,2018,1.11111111
92,8,M,2004,0.194444444
92,8,M,2005,0.111111111
92,8,M,2006,0.25
92,8,M,2007,1
92,8,M,2008,0.83333333
92,8,M,2009,0.64285714
92,8,M,2010,3.31578947
92,8,M,2011,8.42105263
92,8,M,2013,0.77777778
92,8,M,2015,0.44444444
92,8,M,2016,0.44444444
92,8,M,2017,0.5
92,8,M,2018,0.27777778
93,8,M,2004,0.291666667
93,8,M,2005,0.083333333
93,8,M,2006,0.25
93,8,M,2007,0.44444444
93,8,M,2008,0.66666667
93,8,M,2009,0.85714286
93,8,M,2010,2.52631579
93,8,M,2011,7.42105263
93,8,M,2013,0.94444444
93,8,M,2015,1.05555556
93,8,M,2016,0.77777778
93,8,M,2017,1
93,8,M,2018,2.16666667
94,8,MF,2004,0.638888889
94,8,MF,2005,0.055555556
94,8,MF,2006,0.01388889
94,8,MF,2007,1.33333333
94,8,MF,2008,0
94,8,MF,2009,0.21428571
94,8,MF,2010,0.73684211
94,8,MF,2011,5.10526316
94,8,MF,2013,0
94,8,MF,2015,0.44444444
94,8,MF,2016,0.83333333
94,8,MF,2017,1.5
94,8,MF,2018,0.38888889
95,8,MF,2004,0.861111111
95,8,MF,2005,0.638888889
95,8,MF,2006,0.70833333
95,8,MF,2007,1.33333333
95,8,MF,2008,1
95,8,MF,2009,1.07142857
95,8,MF,2010,1.89473684
95,8,MF,2011,10.4210526
95,8,MF,2013,0
95,8,MF,2015,0.11111111
95,8,MF,2016,0.05555556
95,8,MF,2017,0.05555556
95,8,MF,2018,0
96,8,MF,2004,0.541666667
96,8,MF,2005,0.958333333
96,8,MF,2006,0.06944444
96,8,MF,2007,0.05555556
96,8,MF,2008,0.05555556
96,8,MF,2009,0
96,8,MF,2010,0
96,8,MF,2011,5.52631579
96,8,MF,2013,0.05555556
96,8,MF,2015,0.05555556
96,8,MF,2016,0
96,8,MF,2017,1.05555556
96,8,MF,2018,0.27777778
